[gd_scene load_steps=3 format=2]

[ext_resource path="res://downloader/downloader.gd" type="Script" id=1]
[ext_resource path="res://downloader/image_loader.gd" type="Script" id=2]

[node name="root" type="Node"]

[node name="ui" type="Node2D" parent="."]

[node name="VBoxContainer" type="VBoxContainer" parent="ui"]
margin_left = 8.0
margin_top = 8.0
margin_right = 48.0
margin_bottom = 48.0
__meta__ = {
"_edit_use_anchors_": false
}

[node name="Label" type="Label" parent="ui/VBoxContainer"]
margin_right = 61.0
margin_bottom = 14.0
text = "download"

[node name="TextureRect" type="TextureRect" parent="ui/VBoxContainer"]
margin_top = 18.0
margin_right = 61.0
margin_bottom = 18.0

[node name="image_loader" type="Node" parent="ui"]
script = ExtResource( 2 )
http = NodePath("../../http")
target = NodePath("../VBoxContainer")

[node name="http" type="Node" parent="."]
script = ExtResource( 1 )
